-------------------------------------------------------------------------------
Test set: atypon_qaa_assignment_solution.atypon_qaa_assignment_solution.AppTest
-------------------------------------------------------------------------------
Tests run: 0, Failures: 0, Errors: 0, Skipped: 0, Time elapsed: 0.721 s - in atypon_qaa_assignment_solution.atypon_qaa_assignment_solution.AppTest
