C:\Users\Methaq QA\eclipse-workspace\atypon_qaa_assignment_solution\src\main\java\TestAutomation_Atypon\GlobalVariable.java
C:\Users\Methaq QA\eclipse-workspace\atypon_qaa_assignment_solution\src\main\java\TestAutomation_Atypon\App.java
C:\Users\Methaq QA\eclipse-workspace\atypon_qaa_assignment_solution\src\main\java\TestAutomation_Atypon\firefoxDriver.java
C:\Users\Methaq QA\eclipse-workspace\atypon_qaa_assignment_solution\src\main\java\TestAutomation_Atypon\CustomKeywords.java
C:\Users\Methaq QA\eclipse-workspace\atypon_qaa_assignment_solution\src\main\java\TestAutomation_Atypon\edgeDriver.java
C:\Users\Methaq QA\eclipse-workspace\atypon_qaa_assignment_solution\src\main\java\TestAutomation_Atypon\chromeDriver.java
C:\Users\Methaq QA\eclipse-workspace\atypon_qaa_assignment_solution\src\main\java\PageObjects\BooksPage.java
C:\Users\Methaq QA\eclipse-workspace\atypon_qaa_assignment_solution\src\main\java\PageObjects\HomePage.java
